simulation/qsim/lab_V12.msim.vcd
$comment
	File created using the following command:
		vcd file lab_V12.msim.vcd -direction
$end
$date
	Thu Mar 14 15:03:13 2024
$end
$version
	ModelSim Version 10.3d
$end
$timescale
	1ps
$end

$scope module wrapper_add4_vlg_vec_tst $end
$var reg 4 ! a [3:0] $end
$var reg 4 " b [3:0] $end
$var reg 1 # c $end
$var wire 1 $ CO $end
$var wire 1 % HEXO [6] $end
$var wire 1 & HEXO [5] $end
$var wire 1 ' HEXO [4] $end
$var wire 1 ( HEXO [3] $end
$var wire 1 ) HEXO [2] $end
$var wire 1 * HEXO [1] $end
$var wire 1 + HEXO [0] $end
$var wire 1 , sampler $end

$scope module i1 $end
$var wire 1 - gnd $end
$var wire 1 . vcc $end
$var wire 1 / unknown $end
$var tri1 1 0 devclrn $end
$var tri1 1 1 devpor $end
$var tri1 1 2 devoe $end
$var wire 1 3 c~input_o $end
$var wire 1 4 ~QUARTUS_CREATED_GND~I_combout $end
$var wire 1 5 b[0]~input_o $end
$var wire 1 6 a[1]~input_o $end
$var wire 1 7 b[1]~input_o $end
$var wire 1 8 a[0]~input_o $end
$var wire 1 9 inst0|inst1|Add1~0_combout $end
$var wire 1 : inst0|inst0|Add1~0_combout $end
$var wire 1 ; a[3]~input_o $end
$var wire 1 < b[3]~input_o $end
$var wire 1 = a[2]~input_o $end
$var wire 1 > b[2]~input_o $end
$var wire 1 ? inst0|inst2|Add1~0_combout $end
$var wire 1 @ inst0|inst3|Add1~0_combout $end
$var wire 1 A inst2|WideOr6~0_combout $end
$var wire 1 B inst2|WideOr5~0_combout $end
$var wire 1 C inst2|WideOr4~0_combout $end
$var wire 1 D inst2|WideOr3~0_combout $end
$var wire 1 E inst2|WideOr2~0_combout $end
$var wire 1 F inst2|WideOr1~0_combout $end
$var wire 1 G inst2|WideOr0~0_combout $end
$upscope $end
$upscope $end
$enddefinitions $end
#0
$dumpvars
b1110 !
b1101 "
0#
0$
1+
0*
0)
1(
1'
1&
1%
x,
0-
1.
x/
10
11
12
03
04
15
16
07
08
09
1:
1;
1<
1=
1>
0?
0@
1A
0B
0C
1D
1E
1F
0G
$end
#15000
b1111 !
18
0,
1?
0:
19
1G
0F
0E
0D
1B
0A
1@
1$
0+
1*
0(
0'
0&
0%
1C
1)
#20000
b101 "
b1 "
b11 "
17
0>
0<
1,
09
0@
0$
1E
1D
0C
0B
1A
1+
0*
0)
1(
1'
#30000
b111 !
b11 !
b1 !
06
0=
0;
0,
19
1@
1$
0E
0D
1C
1B
0A
0+
1*
1)
0(
0'
#40000
b10 "
b1010 "
b1110 "
b1100 "
05
07
1>
1<
1,
0?
1:
0@
0$
1F
1E
0C
0B
1@
1$
0*
0)
1'
1&
0F
0E
1B
1A
1+
1*
0'
0&
#45000
b0 !
b100 !
b110 !
08
16
1=
0,
1?
0:
1C
0A
0@
0$
0+
1)
0C
0)
#60000
b1110 !
b1010 !
0=
1;
1,
0?
1@
1$
1D
0B
0@
0$
0*
1(
1F
0D
1C
1)
0(
1&
#75000
b1000 !
b1100 !
06
1=
0,
09
0G
0F
0C
0)
0&
1%
#80000
b1101 "
b101 "
15
0<
1,
1?
1:
19
1@
1G
1$
1D
1C
1B
0@
0G
0$
1*
1)
1(
0%
1F
1E
0C
0B
0*
0)
1'
1&
1%
#90000
b1110 !
16
0,
0?
09
1A
1@
1G
1$
1+
0F
0D
0A
0+
0(
0&
0%
#100000
1#
b1 "
13
0>
1,
1?
1F
0E
1A
0@
0$
1+
0'
1&
0F
1E
1B
0A
0+
1*
1'
0&
#105000
b1111 !
b111 !
b11 !
b1 !
18
06
0=
0;
0,
0?
0:
1@
1$
0E
0B
0@
0G
0$
0*
0'
1%
#120000
b11 "
b1011 "
b1111 "
b101 !
1=
17
1>
1<
1,
1?
19
1@
1G
1$
1C
1B
0@
0$
1*
1)
0%
0C
0)
#140000
b111 "
b11 "
0>
0<
0,
0?
1@
1$
1D
0B
0@
0$
0*
1(
1F
0D
1C
1)
0(
1&
#150000
b1101 !
1;
1,
1@
1$
0F
1D
0C
0)
1(
0&
#160000
b1011 "
1<
0,
0@
0$
1F
0D
1C
1)
0(
1&
#165000
b1100 !
b1110 !
b1010 !
08
16
0=
1,
1?
1:
0G
1E
1D
0C
1@
1G
1$
0)
1(
1'
1%
0F
0E
1C
1B
1*
1)
0'
0&
0%
#180000
b1010 "
b1110 "
b10 !
0;
05
1>
0,
0:
09
0@
0$
1E
0C
0B
1A
1+
0*
0)
1'
#195000
b11 !
b111 !
b1111 !
18
1=
1;
1,
1:
19
1@
1$
0E
1C
1B
0A
0+
1*
1)
0'
#200000
0#
b1100 "
b100 "
b0 "
03
07
0>
0<
0,
09
0@
0$
1E
0D
0C
0)
0(
1'
#210000
b1101 !
b1100 !
08
06
1,
0:
1D
0B
1A
1+
0*
1(
#220000
b10 "
b1010 "
17
1<
0,
0?
19
1@
1$
0E
0A
0@
0$
0+
0'
1F
0D
1C
1)
0(
1&
#225000
b1000 !
b0 !
b1 !
18
0=
0;
1,
1:
09
1@
1$
0F
1E
0C
0)
1'
0&
#240000
b1110 "
b11 !
b110 "
b1011 !
16
1;
1>
0<
0,
19
0E
1B
1A
1+
1*
0'
#255000
b1111 !
b1110 !
b1100 !
08
06
1=
1,
1?
0:
1C
0A
0@
0$
0+
1)
0C
0)
#260000
b1110 "
1<
0,
1@
1$
1C
1)
#270000
b1000 !
b1010 !
16
0=
1,
09
0G
1%
#285000
b10 !
b110 !
1=
0;
0,
0?
0@
0$
0C
0B
1@
1G
1$
0*
0)
0%
#300000
1#
b1100 "
b1000 "
b111 !
b101 !
b1 !
13
18
06
0=
07
0>
1,
1?
19
1:
1D
1C
1B
0@
0G
0$
1*
1)
1(
1F
1E
0C
0B
0*
0)
1'
1&
1%
#315000
b1001 !
b1011 !
b1111 !
16
1=
1;
0,
09
1@
1G
1$
0E
0D
1A
1+
0(
0'
0%
#320000
b1001 "
b1011 "
b1111 "
15
17
1>
1,
0?
0:
0F
0A
0@
0G
0$
0+
0&
1%
#330000
b1110 !
08
0,
1?
1:
19
1F
1E
1D
1@
1G
1$
1(
1'
1&
0F
0E
1C
1B
1*
1)
0'
0&
0%
#340000
b111 "
b101 "
07
0<
1,
0?
09
0@
0G
0$
1F
1E
0C
0B
1A
1@
1G
1$
1+
0*
0)
1'
1&
1%
0F
0D
0A
0+
0(
0&
0%
#345000
b1100 !
b1101 !
18
06
0,
0:
0E
0'
#360000
b101 !
b1 "
b1001 "
b111 !
b110 !
0>
1<
08
16
0;
1,
1?
1:
1F
1A
0@
0$
1+
1&
0F
1E
1B
0A
0+
1*
1'
0&
#375000
b10 !
0=
0,
0?
0G
1F
1D
0B
1A
1@
1G
1$
1+
0*
1(
1&
1%
0F
0D
0A
0+
0(
0&
0%
#380000
b1000 "
b1100 "
b100 "
05
1>
0<
1,
0:
19
0@
0$
1F
0E
1C
1)
0'
1&
#390000
b1010 !
b1000 !
b1100 !
06
1=
1;
0,
09
1@
1$
0F
0C
0)
0&
#400000
0#
b110 "
b10 "
03
17
0>
1,
19
1D
1(
#405000
b1101 !
b101 !
b1 !
18
0=
0;
0,
1:
09
0@
0G
0$
1F
1E
1A
1+
1'
1&
1%
#420000
b11 "
b1 "
b0 !
b100 !
08
1=
15
07
1,
19
1G
0D
0A
0+
0(
0%
#435000
b110 !
b10 !
16
0=
0,
09
0G
1D
1A
1+
1(
1%
#440000
b1001 "
b1101 "
1>
1<
1,
1?
1@
1G
1$
0E
0D
0@
0$
0(
0'
0%
0F
1E
1B
0A
0+
1*
1'
0&
#450000
b110 !
1=
0,
0?
0G
1F
1D
0B
1A
1@
1G
1$
1+
0*
1(
1&
1%
0F
0D
0A
0+
0(
0&
0%
#460000
b1100 "
b1110 "
b1010 "
05
17
0>
1,
1?
0:
0G
0E
1C
1B
0@
1G
0$
1*
1)
0'
1%
1E
1D
0C
0B
1A
1+
0*
0)
1(
1'
0%
#465000
b1110 !
b1111 !
18
1;
0,
0?
1:
19
1@
1$
0E
0D
1B
0@
0$
1*
0(
0'
1F
1E
0B
0A
0+
0*
1'
1&
#480000
b10 "
b1110 !
08
0<
1,
1?
0:
09
1@
0G
1$
0F
0E
1C
1B
0@
1G
0$
1*
1)
0'
0&
1%
1E
1D
0C
0B
1A
1+
0*
0)
1(
1'
0%
#495000
b1010 !
b1011 !
18
0=
0,
1:
19
0G
1F
0A
0+
1&
1%
#500000
1#
b110 "
13
1>
1,
0?
1G
0D
1@
1$
0(
0%
0F
0E
1B
1A
1+
1*
0'
0&
#510000
b1001 !
b1101 !
b1100 !
08
06
1=
0,
1?
0:
1C
0A
0@
0$
0+
1)
0C
0)
#520000
b10 "
0>
1,
0?
1F
1C
0B
1@
1$
0*
1)
1&
0F
1D
0C
0)
1(
0&
#525000
b100 !
0;
0,
0@
0$
1F
0D
1C
1)
0(
1&
#540000
b11 "
b0 !
b1 !
b111 "
b1001 !
18
0=
1;
15
1>
1,
1@
1$
0F
1D
0C
0)
1(
0&
#555000
b1000 !
08
0,
1?
1:
09
1F
0D
1A
0@
0$
1+
0(
1&
0F
1E
1B
0A
0+
1*
1'
0&
#560000
b101 "
07
1,
0?
19
1F
0B
1@
1$
0*
1&
0F
0E
1B
1A
1+
1*
0'
0&
#580000
b1 "
0>
0,
1?
1D
1C
0A
0@
0G
0$
0+
1)
1(
1F
1E
0C
0B
0*
0)
1'
1&
1%
#585000
b1001 !
18
1,
0?
0:
09
0F
0E
0D
1@
1G
1$
0(
0'
0&
0%
#600000
b1001 "
0#
b1000 "
b1101 !
b101 !
03
1=
0;
05
1<
0,
1:
19
1B
1A
1+
1*
#615000
b111 !
b110 !
08
16
1,
0:
1D
0B
0A
0+
0*
1(
#620000
b1010 "
b10 "
b11 "
15
17
0<
0,
1:
0@
0$
1F
1E
0D
0(
1'
1&
#630000
b10 !
b1010 !
0=
1;
1,
1?
1@
1$
0F
0E
1D
1C
1B
0@
0G
0$
1*
1)
1(
0'
0&
1F
1E
0C
0B
0*
0)
1'
1&
1%
#640000
b111 "
b1111 "
1>
1<
0,
0?
1@
1G
1$
0F
0E
0D
1B
1A
0@
0$
1+
1*
0(
0'
0&
0%
1F
1E
0B
0A
0+
0*
1'
1&
#645000
b10 !
0;
1,
1@
1$
0F
0E
1B
1A
1+
1*
0'
0&
#660000
b0 !
b1101 "
b1000 !
07
06
1;
0,
0@
0$
1F
1E
0B
0A
0+
0*
1'
1&
#675000
b1001 !
b1101 !
18
1=
1,
0:
09
0G
0F
0E
0'
0&
1%
#680000
b1001 "
b1011 "
17
0>
0,
19
1G
1F
1C
1)
1&
0%
#690000
b1111 !
b111 !
b110 !
b10 !
08
16
0=
0;
1,
1?
1:
1@
1$
0F
1D
1B
0@
0G
0$
1*
1(
0&
1F
1E
0C
0B
0*
0)
1'
1&
1%
#700000
1#
b11 "
b111 "
13
1>
0<
0,
0?
1@
1G
1$
0F
0E
0D
1B
1A
0@
0$
1+
1*
0(
0'
0&
0%
1F
1E
0B
0A
0+
0*
1'
1&
#705000
b0 !
b1000 !
b1100 !
06
1=
1;
1,
09
1@
1$
0F
0&
#720000
b110 "
b10 "
b1110 !
16
05
0>
0,
1?
0:
0G
0E
1C
1B
0@
1G
0$
1*
1)
0'
1%
1E
1D
0C
0B
1A
1+
0*
0)
1(
1'
0%
#735000
b1111 !
b111 !
b11 !
b1 !
18
06
0=
0;
1,
0?
1:
1@
1$
0D
0A
0@
0G
0$
0+
0(
1F
1D
1A
1+
1(
1&
1%
#740000
b0 "
b1000 "
b1100 "
07
1>
1<
0,
19
1@
1G
1$
0F
0E
0D
1B
1*
0(
0'
0&
0%
#750000
b0 !
b100 !
b110 !
08
16
1=
1,
1?
0:
1C
0A
0@
0$
0+
1)
0C
0)
#760000
b1101 "
b1111 "
15
17
0,
1:
0G
1F
1E
1D
0B
0*
1(
1'
1&
1%
#765000
b1110 !
b1111 !
b1101 !
18
06
1;
1,
0:
1@
1G
1$
0F
0E
0D
1C
1B
1*
1)
0(
0'
0&
0%
#780000
b111 "
b1001 !
b110 "
0=
05
0<
0,
1:
09
0@
0$
1E
0C
0)
1'
#795000
b1 !
b0 !
b10 !
b110 !
08
16
1=
0;
1,
0?
0:
1@
1$
0E
0B
0@
0G
0$
0*
0'
1%
#800000
0#
b10 "
b0 "
b1000 "
03
07
0>
1<
0,
19
1@
1G
1$
1D
1(
0%
#810000
b1110 !
1;
1,
0@
0$
1F
0D
1C
1)
0(
1&
#820000
b1001 "
b1011 "
b11 "
15
17
0<
0,
1:
1@
1$
0F
0C
1B
1A
1+
1*
0)
0&
#825000
b1010 !
0=
1,
1?
1D
1C
0A
0@
0G
0$
0+
1)
1(
1F
1E
0C
0B
0*
0)
1'
1&
1%
#840000
b1000 !
b111 "
b0 !
b110 "
b100 "
b1100 "
b100 !
05
07
1>
1<
06
1=
0;
0,
0?
09
0:
0F
0E
0D
1@
1G
1$
0(
0'
0&
0%
#855000
b101 !
b111 !
18
16
1,
1:
1E
1'
#860000
b1000 "
b0 "
0>
0<
0,
1?
0@
0$
1B
1@
1$
1*
1F
0E
0B
1A
1+
0*
0'
1&
#870000
b11 !
b10 !
08
0=
1,
0:
19
0F
1C
1B
0A
0+
1*
1)
0&
#880000
b1 "
b11 "
b111 "
b1111 "
15
17
1>
1<
0,
0?
1:
0@
0$
1F
1E
0C
0B
1@
1$
0*
0)
1'
1&
0F
0E
1B
1A
1+
1*
0'
0&
#885000
b1010 !
b1000 !
06
1;
1,
1?
09
0@
0$
1E
0A
1@
1$
0+
1'
1F
0E
0B
1A
1+
0*
0'
1&
#900000
1#
b1001 !
b1101 "
b1001 "
b1 "
13
07
0>
0<
18
0,
0?
0:
0@
0G
0$
0F
0A
1@
1G
1$
0+
0&
1%
0%
#915000
b1101 !
b101 !
b111 !
b110 !
08
16
1=
0;
1,
1?
1:
0@
0$
1E
1B
1@
1$
1*
1'
1F
0E
0B
1A
1+
0*
0'
1&
#920000
b0 "
b1000 "
05
1<
0,
0?
0:
19
0@
0$
1C
0A
1@
1$
0+
1)
0F
1D
0C
0)
1(
0&
#930000
b10 !
b1010 !
0=
1;
1,
1?
0@
0$
0D
1B
1@
1$
1*
0(
1C
1)
#940000
b0 "
0<
0,
0@
0$
0C
0)
#945000
b1011 !
18
1,
0?
1:
09
0G
1F
1E
1D
0B
1A
1@
1G
1$
1+
0*
1(
1'
1&
1%
0F
0D
0A
0+
0(
0&
0%
#960000
b10 "
b110 "
b111 "
b1111 !
b1110 !
08
1=
15
17
1>
0,
1?
19
0E
1D
1C
1B
0@
0G
0$
1*
1)
1(
0'
1F
1E
0C
0B
0*
0)
1'
1&
1%
#975000
b1100 !
b100 !
b101 !
18
06
0;
1,
0:
1@
1G
1$
0F
0E
0D
1C
1B
1*
1)
0(
0'
0&
0%
#980000
b11 "
b10 "
05
0>
0,
1:
09
1F
0C
0B
1A
1+
0*
0)
1&
#990000
b111 !
b110 !
08
16
1,
0:
0G
0F
1C
1B
0A
0+
1*
1)
0&
1%
